"","V1","V2"
"ANALF",0.857814034140665,0.218661764900623
"SPRIM",0.859188917545311,0.346044152281389
"OVSDE",0.755233681421273,-0.259253466749337
"OVSEE",0.577893880886933,-0.574508075620051
"OVSAE",0.209040870342028,0.195852522880814
"VHAC",0.803164708458615,-0.282106193709851
"OVPT",0.73534424406695,-0.494433565682771
"PL.5000",0.766621382149627,0.328680108181705
"PO2SM",0.564425359953118,0.44462530447726
