"","V1","V2"
"ANALF",0.849066094423967,0.227257115889071
"SPRIM",0.878251996333853,0.331361090337058
"OVSDE",0.834369939148592,-0.21598899812978
"OVSEE",0.620644719272149,-0.619571490855685
"OVSAE",0.402072764214922,-0.0585309050021852
"VHAC",0.824478790294862,-0.205711761609924
"OVPT",0.884126517435894,-0.274124355812327
"PL.5000",0.736728474204992,0.356292429483948
"PO2SM",0.784838156121235,0.140918708926264
