"ANALF",0.945394846645204,-0.0325238781550513
"SPRIM",0.934121176958619,0.0147467486893857
"OVSDE",0.632397638309796,0.429848266230398
"OVSEE",0.696162193014841,-0.329263078551346
"OVSAE",0.858938218666881,-0.350097288504795
"VHAC",0.827641495297217,0.150474525385455
"OVPT",0.850862811346427,-0.339150314246196
"PL.5000",0.873300807856064,0.0785095733600937
"PO2SM",0.879674863177815,0.208359885638604
