"","V1","V2"
"ANALF",0.915003682850007,0.166611733495182
"SPRIM",0.90546600365835,0.113691797040214
"OVSDE",0.613821260089224,-0.318624742810737
"OVSEE",0.770872819625181,0.287734028738063
"OVSAE",0.567159199546385,0.557289135499954
"VHAC",0.669974662717396,-0.536418722532527
"OVPT",0.682900604377189,0.270822066202702
"PL.5000",0.889783372712582,-0.21877709690134
"PO2SM",0.784875883852726,0.10763983759972
