"ANALF",0.947162536784051,-0.0122550640209294
"SPRIM",0.931620230814305,0.0590615799107098
"OVSDE",0.660589333434068,0.44888427038934
"OVSEE",0.795948265638852,-0.322272636368258
"OVSAE",0.85108701768667,-0.383072093725223
"VHAC",0.827454860631173,0.153508641867724
"OVPT",0.881834932111555,-0.332812456685673
"PL.5000",0.870000741299252,0.0881802806952833
"PO2SM",0.883002855245473,0.270792739014658
