"","V1","V2"
"1",-1.48455363545267,-0.172122225588739
"2",-2.29708127165243,1.22503599920195
"3",2.51792791188487,-0.923581254446377
"4",-0.908554463111657,-0.481193363392363
"5",-1.15977984324325,-0.567964828621739
"6",0.762587868796777,-1.19232113259092
"7",0.539377884417898,-0.808386575611896
"8",7.38235252413142,0.0690207422977736
"9",-0.0651183547633806,-0.631224336848919
"10",2.26086211000853,-1.70363170504526
"11",0.594969604930926,1.01622733566874
"12",1.93815020781787,-0.269368321064091
"13",-3.89689022411832,2.96086720953204
"14",-2.35774026413147,0.865207935306716
"15",-2.23497074946182,0.8314513771111
"16",-1.59153930605329,-0.218016855908021
