"","V1","V2"
"226",-4.18651027962195,-0.376076338382104
"227",2.23789451280494,0.982408803141519
"228",1.0342623124799,-0.628760606909292
"229",3.5037199091729,1.44381677777429
"230",-1.05027812126826,1.36019012576312
"231",-1.23109192249648,-0.166980566329584
"232",-1.86286508676368,-0.870059506379295
"233",0.0231847609604448,1.63818702376928
"234",2.23826008896266,0.0778054186811516
"235",2.76505776404811,0.653264108764207
"236",-1.26561675244733,-0.915065075945583
"237",1.23326474039158,-1.03784873067016
"238",0.189081771628735,0.606386462177359
"239",-2.59068068782241,0.139024849497682
"240",-3.24474976209109,0.851724967161158
"241",2.87296273781718,-1.95352839498133
"242",-0.923450403250185,0.707283314132936
"243",-1.10365710111249,-0.18489134546076
"244",2.36104312521384,-0.750439979355424
"245",3.15081246436286,0.361187024493858
"246",-1.01107461462086,-0.413936995666288
"247",0.518549098956829,-0.681204931540365
"248",-0.983364518976013,0.759450079716859
"249",-0.0321231401793296,1.27825228775669
"250",0.84350512081891,0.468825158163762
"251",0.418859775563235,1.5980282395696
"252",0.0504994266248605,2.05684066548326
"253",0.99287253198822,0.241362694881564
"254",-4.2013209732337,-0.873076857064421
"255",-1.19788130533164,0.251093964605938
"256",0.129294925192266,0.846783998412373
"257",2.06884916452658,-2.98360481310335
"258",-1.70185287382785,1.00710565865087
"259",-1.69231169894959,0.206618829176554
"260",-4.20591190576579,-0.42618292043805
"261",0.589476208066356,0.343632214707669
"262",-0.78159357695676,0.636102833886746
"263",-4.22673458000118,-0.395935527088239
"264",-1.59525141680771,0.300483968787827
"265",-0.349466799351028,-0.373591766555902
"266",1.88609490532187,-1.35600317003476
"267",1.67784548269286,0.822419800905727
"268",4.5592375635551,-0.406208144890763
"269",-1.25637450351153,-0.581340653509738
"270",1.17787244468061,0.215463497190807
"271",-0.176590405159765,-0.54203903525425
"272",2.84078942748576,-1.68410395437076
"273",-2.38807281324502,-0.713874423597423
"274",-2.150358231624,0.675815264798749
"275",-3.31803977664079,0.0377556971093325
"276",0.708530064402528,0.577714816050874
"277",2.20956024171843,-2.54711019356773
"278",-0.206657588021617,0.44413174583709
"279",3.08810639672009,-3.50185952110888
"280",-2.85811315105631,-0.0242014726545931
"281",0.38992238947512,0.205474529424178
"282",-1.75836195977983,-0.183682531117848
"283",-1.10375446877944,-0.499446942689421
"284",-0.755481058007981,0.354072790867446
"285",-0.314309464174978,0.885424177821618
"286",-1.7995306747646,-1.13295918297786
"287",4.00887597308444,-0.467945402729679
"288",2.72652409973286,-3.30907333715501
"289",-0.983287902759767,2.24271731481131
"290",0.883945639786132,1.05823797558003
"291",-1.19795582116696,-0.233180272049979
"292",-1.46640193960156,-0.260557811154114
"293",-1.04589756197164,0.693931249613013
"294",2.91534773771665,1.53631331971766
"295",-0.0714609517449742,2.52213663480172
"296",3.29946567923091,-0.584912564171392
"297",2.11349238558729,-0.327398902427626
"298",1.18994141677298,0.167237876653548
"299",1.45858274874137,1.04440105418486
"300",-2.06714924339936,-0.912025343192267
